%YAML 1.1
%TAG !u! tag:unity3d.com,2011:
--- !u!1001 &100100000
Prefab:
  m_ObjectHideFlags: 1
  serializedVersion: 2
  m_Modification:
    m_TransformParent: {fileID: 0}
    m_Modifications: []
    m_RemovedComponents: []
  m_SourcePrefab: {fileID: 0}
  m_RootGameObject: {fileID: 1627354882146336}
  m_IsPrefabAsset: 1
--- !u!1 &1627354882146336
GameObject:
  m_ObjectHideFlags: 0
  m_CorrespondingSourceObject: {fileID: 0}
  m_PrefabInternal: {fileID: 100100000}
  serializedVersion: 6
  m_Component:
  - component: {fileID: 4363569587281266}
  - component: {fileID: 212791940738321166}
  - component: {fileID: 95355263837109338}
  - component: {fileID: 114279426181990366}
  - component: {fileID: 61737289175462388}
  m_Layer: 11
  m_Name: Bartender
  m_TagString: Untagged
  m_Icon: {fileID: 0}
  m_NavMeshLayer: 0
  m_StaticEditorFlags: 0
  m_IsActive: 1
--- !u!4 &4363569587281266
Transform:
  m_ObjectHideFlags: 1
  m_CorrespondingSourceObject: {fileID: 0}
  m_PrefabInternal: {fileID: 100100000}
  m_GameObject: {fileID: 1627354882146336}
  m_LocalRotation: {x: 0, y: 0, z: 0, w: 1}
  m_LocalPosition: {x: -0.028, y: 0.019, z: 0}
  m_LocalScale: {x: 1, y: 1, z: 1}
  m_Children: []
  m_Father: {fileID: 0}
  m_RootOrder: 0
  m_LocalEulerAnglesHint: {x: 0, y: 0, z: 0}
--- !u!61 &61737289175462388
BoxCollider2D:
  m_ObjectHideFlags: 1
  m_CorrespondingSourceObject: {fileID: 0}
  m_PrefabInternal: {fileID: 100100000}
  m_GameObject: {fileID: 1627354882146336}
  m_Enabled: 1
  m_Density: 1
  m_Material: {fileID: 0}
  m_IsTrigger: 1
  m_UsedByEffector: 0
  m_UsedByComposite: 0
  m_Offset: {x: -0.10171607, y: -0.14134917}
  m_SpriteTilingProperty:
    border: {x: 0, y: 0, z: 0, w: 0}
    pivot: {x: 1, y: 0}
    oldSize: {x: 0.21, y: 0.18}
    newSize: {x: 1, y: 1}
    adaptiveTilingThreshold: 0.5
    drawMode: 0
    adaptiveTiling: 0
  m_AutoTiling: 0
  serializedVersion: 2
  m_Size: {x: 0.33779532, y: 0.2527055}
  m_EdgeRadius: 0
--- !u!95 &95355263837109338
Animator:
  serializedVersion: 3
  m_ObjectHideFlags: 1
  m_CorrespondingSourceObject: {fileID: 0}
  m_PrefabInternal: {fileID: 100100000}
  m_GameObject: {fileID: 1627354882146336}
  m_Enabled: 1
  m_Avatar: {fileID: 0}
  m_Controller: {fileID: 9100000, guid: 5d14f78452ed3704586ed1dcb921f219, type: 2}
  m_CullingMode: 0
  m_UpdateMode: 0
  m_ApplyRootMotion: 0
  m_LinearVelocityBlending: 0
  m_WarningMessage: 
  m_HasTransformHierarchy: 1
  m_AllowConstantClipSamplingOptimization: 1
  m_KeepAnimatorControllerStateOnDisable: 0
--- !u!114 &114279426181990366
MonoBehaviour:
  m_ObjectHideFlags: 1
  m_CorrespondingSourceObject: {fileID: 0}
  m_PrefabInternal: {fileID: 100100000}
  m_GameObject: {fileID: 1627354882146336}
  m_Enabled: 1
  m_EditorHideFlags: 0
  m_Script: {fileID: 11500000, guid: 968f3488e84534b45bff8d80bcf8e28d, type: 3}
  m_Name: 
  m_EditorClassIdentifier: 
  interactableCol: {fileID: 61737289175462388}
  interactText: 
  avatar: {fileID: 21300000, guid: 8e2d098ebfc1618428a91d333e084df4, type: 3}
  dialogCollection:
    dialogGroups:
    - type: 0
      dialogs:
      - text: Ello mate, how can I help ya?
        isPlayerDialog: 0
        isInstant: 0
        positiveAction: 0
        negativeAction: 5
        positiveText: 
        negativeText: 
      - text: I'm looking for some food.
        isPlayerDialog: 1
        isInstant: 0
        positiveAction: 0
        negativeAction: 0
        positiveText: 
        negativeText: 
      - text: We got some beef, beer, freshly baked bread. I got a job for ya as well
          if you have the guts for it.
        isPlayerDialog: 0
        isInstant: 0
        positiveAction: 4
        negativeAction: 1
        positiveText: 
        negativeText: 
    - type: 1
      dialogs:
      - text: I'll help you out, what's bothering you?
        isPlayerDialog: 1
        isInstant: 0
        positiveAction: 0
        negativeAction: 0
        positiveText: 
        negativeText: 
      - text: Fantastic! So I have this pesky rat in me basement and it's blocking
          me liqour.
        isPlayerDialog: 0
        isInstant: 0
        positiveAction: 0
        negativeAction: 0
        positiveText: 
        negativeText: 
      - text: Would you kill the thing for me?
        isPlayerDialog: 0
        isInstant: 0
        positiveAction: 0
        negativeAction: 0
        positiveText: 
        negativeText: 
      - text: If ye do, dinner is on the house and I might even give ya some extra
          coin for it.
        isPlayerDialog: 0
        isInstant: 0
        positiveAction: 1
        negativeAction: 2
        positiveText: 
        negativeText: 
    - type: 2
      dialogs:
      - text: I killed the rat.
        isPlayerDialog: 1
        isInstant: 0
        positiveAction: 0
        negativeAction: 5
        positiveText: 
        negativeText: 
      - text: Thank you good sir, you've done a great deed, here, have some food and
          the coin as promised.
        isPlayerDialog: 0
        isInstant: 0
        positiveAction: 2
        negativeAction: 2
        positiveText: 
        negativeText: 
    - type: 3
      dialogs:
      - text: 'Please kill the rat for me, I''ve got clients that want their booze
          ye know. '
        isPlayerDialog: 0
        isInstant: 0
        positiveAction: 6
        negativeAction: 5
        positiveText: 
        negativeText: 
    - type: 4
      dialogs:
      - text: Ello mate, how can I help ya?
        isPlayerDialog: 0
        isInstant: 0
        positiveAction: 3
        negativeAction: 1
        positiveText: 
        negativeText: 
    - type: 5
      dialogs:
      - text: Thanks for killing that thing, you hungry?
        isPlayerDialog: 0
        isInstant: 0
        positiveAction: 5
        negativeAction: 5
        positiveText: 
        negativeText: 
    shop: {fileID: 114673286955461110, guid: 5474b7be4071d4be6b3975db81ddcf83, type: 2}
    quest: {fileID: 114000010624653910, guid: 923527affa29345909fdf7ec587f1b89, type: 2}
--- !u!212 &212791940738321166
SpriteRenderer:
  m_ObjectHideFlags: 1
  m_CorrespondingSourceObject: {fileID: 0}
  m_PrefabInternal: {fileID: 100100000}
  m_GameObject: {fileID: 1627354882146336}
  m_Enabled: 1
  m_CastShadows: 0
  m_ReceiveShadows: 0
  m_DynamicOccludee: 1
  m_MotionVectors: 1
  m_LightProbeUsage: 0
  m_ReflectionProbeUsage: 0
  m_RenderingLayerMask: 4294967295
  m_Materials:
  - {fileID: 10754, guid: 0000000000000000f000000000000000, type: 0}
  m_StaticBatchInfo:
    firstSubMesh: 0
    subMeshCount: 0
  m_StaticBatchRoot: {fileID: 0}
  m_ProbeAnchor: {fileID: 0}
  m_LightProbeVolumeOverride: {fileID: 0}
  m_ScaleInLightmap: 1
  m_PreserveUVs: 0
  m_IgnoreNormalsForChartDetection: 0
  m_ImportantGI: 0
  m_StitchLightmapSeams: 0
  m_SelectedEditorRenderState: 0
  m_MinimumChartSize: 4
  m_AutoUVMaxDistance: 0.5
  m_AutoUVMaxAngle: 89
  m_LightmapParameters: {fileID: 0}
  m_SortingLayerID: -1584373697
  m_SortingLayer: 1
  m_SortingOrder: 1
  m_Sprite: {fileID: 21300000, guid: 9851adbf3f0b75b4f9d726e24c2cc7f3, type: 3}
  m_Color: {r: 1, g: 1, b: 1, a: 1}
  m_FlipX: 0
  m_FlipY: 0
  m_DrawMode: 0
  m_Size: {x: 1, y: 1}
  m_AdaptiveModeThreshold: 0.5
  m_SpriteTileMode: 0
  m_WasSpriteAssigned: 1
  m_MaskInteraction: 0
  m_SpriteSortPoint: 0
